CDC NHANES Codebook Scraping
…
survey_df <- survey_df %>% 
  unnest(cols = c(var_content))

Now that we have the “list of descriptions”, we could scan which variables/topics are of interest to us. We are particularly interested in variables potentially related to diabetes.

Note however that nrow = 4681 has 3 more variables when compared to distinct(survey_df, group_filename) = 145, suggesting that there are some duplicates:

janitor::get_dupes(survey_df, group_filename)

## # A tibble: 4,681 x 5
##    group_filename dupe_count category    group_var   data_name                  
##    <chr>               <int> <fct>       <chr>       <chr>                      
##  1 ACQ_D                   6 questionna… Acculturat… SEQN - Respondent sequence…
##  2 ACQ_D                   6 questionna… Acculturat… ACQ005 - CHECK ITEM        
##  3 ACQ_D                   6 questionna… Acculturat… ACD010A - English usually …
##  4 ACQ_D                   6 questionna… Acculturat… ACD010B - Spanish usually …
##  5 ACQ_D                   6 questionna… Acculturat… ACD010C - Other language(s…
##  6 ACQ_D                   6 questionna… Acculturat… ACD040 - Language(s) usual…
##  7 AGQ_D                  24 questionna… Allergy     SEQN - Respondent sequence…
##  8 AGQ_D                  24 questionna… Allergy     AGQ010 - Doctor told have …
##  9 AGQ_D                  24 questionna… Allergy     AGD020 - Age when first ha…
## 10 AGQ_D                  24 questionna… Allergy     AGQ030 - Episode of hay fe…
## # … with 4,671 more rows
…
