…
Now that we have filtered out unnecessary group variables, we can check
for duplicate variables using `janitor::get_dupes` function.

``` r
janitor::get_dupes(survey_df_filtered, var_name)
```

    ## # A tibble: 141 x 6
    ##    var_name dupe_count category  group_var          group_filename var_desc     
    ##    <chr>         <int> <fct>     <chr>              <chr>          <chr>        
    ##  1 CBSA              2 limited … Geocoded Data, NH… GEO_2000       Core Based S…
    ##  2 CBSA              2 limited … Geocoded Data, NH… GEO_2010       Core Based S…
    ##  3 DMDBORN           2 demograp… Demographic Varia… DEMO_D         Country of B…
    ##  4 DMDBORN           2 limited … California - Demo… CDEMO_AD       Country of b…
    ##  5 DMDCITZN          2 demograp… Demographic Varia… DEMO_D         Citizenship …
    ##  6 DMDCITZN          2 limited … California - Demo… CDEMO_AD       Citizenship …
    ##  7 DMDEDUC2          2 demograp… Demographic Varia… DEMO_D         Education Le…
    ##  8 DMDEDUC2          2 limited … California - Demo… CDEMO_AD       Education le…
    ##  9 DMDEDUC3          2 demograp… Demographic Varia… DEMO_D         Education Le…
    ## 10 DMDEDUC3          2 limited … California - Demo… CDEMO_AD       Education le…
    ## # … with 131 more rows
…
``` r
survey_df_filtered <- left_join(survey_df_filtered, 
                               detailed_var_desc,
                               by = c("category", "group_filename", "var_name"))
```

After obtaining a more comprehensive description dataset, we always
check for duplicates.

``` r
janitor::get_dupes(survey_df_filtered, group_filename, var_name)
```

    ## # A tibble: 52 x 7
    ##    group_filename var_name dupe_count category  group_var var_desc det_var_desc 
    ##    <chr>          <chr>         <int> <fct>     <chr>     <chr>    <chr>        
    ##  1 GEO_2000       BG2K              2 limited … Geocoded… Census … Census 2000 …
    ##  2 GEO_2000       BG2K              2 limited … Geocoded… Census … Census 2000 …
    ##  3 GEO_2000       BLOCK2K           2 limited … Geocoded… Census … Census 2000 …
    ##  4 GEO_2000       BLOCK2K           2 limited … Geocoded… Census … Census 2000 …
    ##  5 GEO_2000       CBSA              2 limited … Geocoded… Core Ba… CBSA Lowest …
    ##  6 GEO_2000       CBSA              2 limited … Geocoded… Core Ba… Core Based S…
    ##  7 GEO_2000       CNTY2K            2 limited … Geocoded… Census … Census 2000 …
    ##  8 GEO_2000       CNTY2K            2 limited … Geocoded… Census … Census 2000 …
    ##  9 GEO_2000       LAT               2 limited … Geocoded… Latitud… Latitude in …
    ## 10 GEO_2000       LAT               2 limited … Geocoded… Latitud… Latitude (De…
    ## # … with 42 more rows
…
